%YAML 1.1
%TAG !u! tag:unity3d.com,2011:
--- !u!114 &11400000
MonoBehaviour:
  m_ObjectHideFlags: 0
  m_CorrespondingSourceObject: {fileID: 0}
  m_PrefabInstance: {fileID: 0}
  m_PrefabAsset: {fileID: 0}
  m_GameObject: {fileID: 0}
  m_Enabled: 1
  m_EditorHideFlags: 0
  m_Script: {fileID: 11500000, guid: 37562b39ff933b245ac2f35d87edbcd6, type: 3}
  m_Name: Fun
  m_EditorClassIdentifier: 
  m_prefab: {fileID: 0}
  BlendShapeName: Fun
  Preset: 11
  Values:
  - RelativePath: Shiori_head
    Index: 3
    Weight: 33.5
  - RelativePath: Shiori_head_eyebrow
    Index: 7
    Weight: 48.8
  - RelativePath: Shiori_tee
    Index: 3
    Weight: 33.5
  - RelativePath: Shiori_tongue
    Index: 3
    Weight: 33.5
  MaterialValues: []
  IsBinary: 0
