%YAML 1.1
%TAG !u! tag:unity3d.com,2011:
--- !u!114 &11400000
MonoBehaviour:
  m_ObjectHideFlags: 0
  m_CorrespondingSourceObject: {fileID: 0}
  m_PrefabInstance: {fileID: 0}
  m_PrefabAsset: {fileID: 0}
  m_GameObject: {fileID: 0}
  m_Enabled: 1
  m_EditorHideFlags: 0
  m_Script: {fileID: 11500000, guid: 37562b39ff933b245ac2f35d87edbcd6, type: 3}
  m_Name: mouthShrugUpper
  m_EditorClassIdentifier: 
  m_prefab: {fileID: 0}
  BlendShapeName: mouthShrugUpper
  Preset: 0
  Values:
  - RelativePath: Shiori_head
    Index: 20
    Weight: 100
  MaterialValues: []
  IsBinary: 0
