%YAML 1.1
%TAG !u! tag:unity3d.com,2011:
--- !u!114 &11400000
MonoBehaviour:
  m_ObjectHideFlags: 0
  m_CorrespondingSourceObject: {fileID: 0}
  m_PrefabInstance: {fileID: 0}
  m_PrefabAsset: {fileID: 0}
  m_GameObject: {fileID: 0}
  m_Enabled: 1
  m_EditorHideFlags: 0
  m_Script: {fileID: 11500000, guid: 37562b39ff933b245ac2f35d87edbcd6, type: 3}
  m_Name: Sorrow
  m_EditorClassIdentifier: 
  m_prefab: {fileID: 0}
  BlendShapeName: Sorrow
  Preset: 10
  Values:
  - RelativePath: Shiori_head
    Index: 33
    Weight: 100
  - RelativePath: Shiori_head_eye
    Index: 40
    Weight: 100
  - RelativePath: Shiori_head_eyebrow
    Index: 7
    Weight: 100
  - RelativePath: Shiori_tee
    Index: 7
    Weight: 100
  - RelativePath: Shiori_tongue
    Index: 8
    Weight: 100
  MaterialValues: []
  IsBinary: 0
